<mxfile host="app.diagrams.net" modified="2022-11-14T11:03:21.169Z" agent="5.0 (Windows NT 10.0; Win64; x64) AppleWebKit/537.36 (KHTML, like Gecko) Chrome/107.0.0.0 Safari/537.36" etag="Nb19jJ1OoBeRJw81wCju" version="20.5.3" type="gitlab" pages="2">
  <diagram name="Page-1" id="ad52d381-51e7-2e0d-a935-2d0ddd2fd229">
    <mxGraphModel dx="1422" dy="790" grid="1" gridSize="10" guides="1" tooltips="1" connect="1" arrows="1" fold="1" page="1" pageScale="1" pageWidth="1100" pageHeight="850" background="none" math="0" shadow="0">
      <root>
        <mxCell id="0" />
        <mxCell id="1" parent="0" />
        <mxCell id="2c924340bb9dbf6c-1" value="&lt;span&gt;Topic 10&lt;/span&gt;" style="whiteSpace=wrap;html=1;rounded=1;shadow=1;comic=0;labelBackgroundColor=none;strokeWidth=2;fontFamily=Verdana;fontSize=12;align=center;arcSize=50;" parent="1" vertex="1">
          <mxGeometry x="140" y="70" width="100" height="20" as="geometry" />
        </mxCell>
        <mxCell id="2c924340bb9dbf6c-2" value="Sub-node 1" style="ellipse;whiteSpace=wrap;html=1;rounded=1;shadow=1;comic=0;labelBackgroundColor=none;strokeWidth=2;fontFamily=Verdana;fontSize=12;align=center;" parent="1" vertex="1">
          <mxGeometry x="260" y="110" width="120" height="80" as="geometry" />
        </mxCell>
        <mxCell id="2c924340bb9dbf6c-3" value="&lt;span&gt;Sub-node 2&lt;/span&gt;" style="ellipse;whiteSpace=wrap;html=1;rounded=1;shadow=1;comic=0;labelBackgroundColor=none;strokeWidth=2;fontFamily=Verdana;fontSize=12;align=center;" parent="1" vertex="1">
          <mxGeometry x="650" y="110" width="120" height="80" as="geometry" />
        </mxCell>
        <mxCell id="2c924340bb9dbf6c-4" value="Root node" style="ellipse;whiteSpace=wrap;html=1;rounded=1;shadow=1;comic=0;labelBackgroundColor=none;strokeWidth=2;fontFamily=Verdana;fontSize=12;align=center;" parent="1" vertex="1">
          <mxGeometry x="530" y="260" width="120" height="120" as="geometry" />
        </mxCell>
        <mxCell id="2c924340bb9dbf6c-5" value="&lt;span&gt;Sub-node 5&lt;/span&gt;" style="ellipse;whiteSpace=wrap;html=1;rounded=1;shadow=1;comic=0;labelBackgroundColor=none;strokeWidth=2;fontFamily=Verdana;fontSize=12;align=center;" parent="1" vertex="1">
          <mxGeometry x="630" y="420" width="120" height="80" as="geometry" />
        </mxCell>
        <mxCell id="2c924340bb9dbf6c-6" value="&lt;span&gt;Sub-node 4&lt;/span&gt;" style="ellipse;whiteSpace=wrap;html=1;rounded=1;shadow=1;comic=0;labelBackgroundColor=none;strokeWidth=2;fontFamily=Verdana;fontSize=12;align=center;" parent="1" vertex="1">
          <mxGeometry x="810" y="410" width="120" height="80" as="geometry" />
        </mxCell>
        <mxCell id="2c924340bb9dbf6c-7" value="&lt;span&gt;Sub-node 6&lt;/span&gt;" style="ellipse;whiteSpace=wrap;html=1;rounded=1;shadow=1;comic=0;labelBackgroundColor=none;strokeWidth=2;fontFamily=Verdana;fontSize=12;align=center;" parent="1" vertex="1">
          <mxGeometry x="440" y="480" width="120" height="80" as="geometry" />
        </mxCell>
        <mxCell id="2c924340bb9dbf6c-8" value="&lt;span&gt;Topic 11&lt;/span&gt;" style="whiteSpace=wrap;html=1;rounded=1;shadow=1;comic=0;labelBackgroundColor=none;strokeWidth=2;fontFamily=Verdana;fontSize=12;align=center;arcSize=50;" parent="1" vertex="1">
          <mxGeometry x="110" y="140" width="100" height="20" as="geometry" />
        </mxCell>
        <mxCell id="2c924340bb9dbf6c-9" value="&lt;span&gt;Topic 12&lt;/span&gt;" style="whiteSpace=wrap;html=1;rounded=1;shadow=1;comic=0;labelBackgroundColor=none;strokeWidth=2;fontFamily=Verdana;fontSize=12;align=center;arcSize=50;" parent="1" vertex="1">
          <mxGeometry x="110" y="210" width="100" height="20" as="geometry" />
        </mxCell>
        <mxCell id="2c924340bb9dbf6c-10" value="&lt;span&gt;Topic 9&lt;/span&gt;" style="whiteSpace=wrap;html=1;rounded=1;shadow=1;comic=0;labelBackgroundColor=none;strokeWidth=2;fontFamily=Verdana;fontSize=12;align=center;arcSize=50;" parent="1" vertex="1">
          <mxGeometry x="320" y="40" width="100" height="20" as="geometry" />
        </mxCell>
        <mxCell id="2c924340bb9dbf6c-11" value="&lt;span&gt;Topic 7&lt;/span&gt;" style="whiteSpace=wrap;html=1;rounded=1;shadow=1;comic=0;labelBackgroundColor=none;strokeWidth=2;fontFamily=Verdana;fontSize=12;align=center;arcSize=50;" parent="1" vertex="1">
          <mxGeometry x="570" y="60" width="100" height="20" as="geometry" />
        </mxCell>
        <mxCell id="2c924340bb9dbf6c-12" value="&lt;span&gt;Topic 21&lt;/span&gt;" style="whiteSpace=wrap;html=1;rounded=1;shadow=1;comic=0;labelBackgroundColor=none;strokeWidth=2;fontFamily=Verdana;fontSize=12;align=center;arcSize=50;" parent="1" vertex="1">
          <mxGeometry x="910" y="520" width="100" height="20" as="geometry" />
        </mxCell>
        <mxCell id="2c924340bb9dbf6c-13" value="&lt;span&gt;Topic 22&lt;/span&gt;" style="whiteSpace=wrap;html=1;rounded=1;shadow=1;comic=0;labelBackgroundColor=none;strokeWidth=2;fontFamily=Verdana;fontSize=12;align=center;arcSize=50;" parent="1" vertex="1">
          <mxGeometry x="980" y="470" width="100" height="20" as="geometry" />
        </mxCell>
        <mxCell id="2c924340bb9dbf6c-14" value="&lt;span&gt;Topic 6&lt;/span&gt;" style="whiteSpace=wrap;html=1;rounded=1;shadow=1;comic=0;labelBackgroundColor=none;strokeWidth=2;fontFamily=Verdana;fontSize=12;align=center;arcSize=50;" parent="1" vertex="1">
          <mxGeometry x="650" y="20" width="100" height="20" as="geometry" />
        </mxCell>
        <mxCell id="2c924340bb9dbf6c-15" value="&lt;span&gt;Topic 5&lt;/span&gt;" style="whiteSpace=wrap;html=1;rounded=1;shadow=1;comic=0;labelBackgroundColor=none;strokeWidth=2;fontFamily=Verdana;fontSize=12;align=center;arcSize=50;" parent="1" vertex="1">
          <mxGeometry x="770" y="40" width="100" height="20" as="geometry" />
        </mxCell>
        <mxCell id="2c924340bb9dbf6c-16" value="&lt;span&gt;Topic 4&lt;/span&gt;" style="whiteSpace=wrap;html=1;rounded=1;shadow=1;comic=0;labelBackgroundColor=none;strokeWidth=2;fontFamily=Verdana;fontSize=12;align=center;arcSize=50;" parent="1" vertex="1">
          <mxGeometry x="820" y="90" width="100" height="20" as="geometry" />
        </mxCell>
        <mxCell id="2c924340bb9dbf6c-17" value="&lt;span&gt;Topic 3&lt;/span&gt;" style="whiteSpace=wrap;html=1;rounded=1;shadow=1;comic=0;labelBackgroundColor=none;strokeWidth=2;fontFamily=Verdana;fontSize=12;align=center;arcSize=50;" parent="1" vertex="1">
          <mxGeometry x="840" y="130" width="100" height="20" as="geometry" />
        </mxCell>
        <mxCell id="2c924340bb9dbf6c-18" value="&lt;span&gt;Topic 2&lt;/span&gt;" style="whiteSpace=wrap;html=1;rounded=1;shadow=1;comic=0;labelBackgroundColor=none;strokeWidth=2;fontFamily=Verdana;fontSize=12;align=center;arcSize=50;" parent="1" vertex="1">
          <mxGeometry x="840" y="200" width="100" height="20" as="geometry" />
        </mxCell>
        <mxCell id="2c924340bb9dbf6c-19" value="Topic 1" style="whiteSpace=wrap;html=1;rounded=1;shadow=1;comic=0;labelBackgroundColor=none;strokeWidth=2;fontFamily=Verdana;fontSize=12;align=center;arcSize=50;" parent="1" vertex="1">
          <mxGeometry x="700" y="220" width="100" height="20" as="geometry" />
        </mxCell>
        <mxCell id="2c924340bb9dbf6c-22" value="&lt;span&gt;Topic 20&lt;/span&gt;" style="whiteSpace=wrap;html=1;rounded=1;shadow=1;comic=0;labelBackgroundColor=none;strokeWidth=2;fontFamily=Verdana;fontSize=12;align=center;arcSize=50;" parent="1" vertex="1">
          <mxGeometry x="810" y="560" width="100" height="20" as="geometry" />
        </mxCell>
        <mxCell id="2c924340bb9dbf6c-23" value="End" style="whiteSpace=wrap;html=1;rounded=1;shadow=1;comic=0;labelBackgroundColor=none;strokeWidth=2;fontFamily=Verdana;fontSize=12;align=center;arcSize=50;" parent="1" vertex="1">
          <mxGeometry x="60" y="310" width="100" height="40" as="geometry" />
        </mxCell>
        <mxCell id="2c924340bb9dbf6c-24" value="Condition" style="rhombus;whiteSpace=wrap;html=1;rounded=0;shadow=1;comic=0;labelBackgroundColor=none;strokeWidth=2;fontFamily=Verdana;fontSize=12;align=center;" parent="1" vertex="1">
          <mxGeometry x="70" y="450" width="80" height="80" as="geometry" />
        </mxCell>
        <mxCell id="2c924340bb9dbf6c-25" value="&lt;span&gt;Process 3&lt;/span&gt;" style="rounded=1;whiteSpace=wrap;html=1;shadow=1;comic=0;labelBackgroundColor=none;strokeWidth=2;fontFamily=Verdana;fontSize=12;align=center;" parent="1" vertex="1">
          <mxGeometry x="50" y="560" width="120" height="60" as="geometry" />
        </mxCell>
        <mxCell id="2c924340bb9dbf6c-26" value="Process 2" style="rounded=1;whiteSpace=wrap;html=1;shadow=1;comic=0;labelBackgroundColor=none;strokeWidth=2;fontFamily=Verdana;fontSize=12;align=center;" parent="1" vertex="1">
          <mxGeometry x="280" y="570" width="120" height="60" as="geometry" />
        </mxCell>
        <mxCell id="2c924340bb9dbf6c-27" value="relation" style="edgeStyle=none;rounded=1;html=1;labelBackgroundColor=none;startArrow=none;startFill=0;startSize=5;endArrow=classicThin;endFill=1;endSize=5;jettySize=auto;orthogonalLoop=1;strokeColor=#B3B3B3;strokeWidth=1;fontFamily=Verdana;fontSize=12" parent="1" source="2c924340bb9dbf6c-2" target="2c924340bb9dbf6c-10" edge="1">
          <mxGeometry relative="1" as="geometry" />
        </mxCell>
        <mxCell id="2c924340bb9dbf6c-28" value="relation" style="edgeStyle=none;rounded=1;html=1;labelBackgroundColor=none;startArrow=none;startFill=0;startSize=5;endArrow=classicThin;endFill=1;endSize=5;jettySize=auto;orthogonalLoop=1;strokeColor=#B3B3B3;strokeWidth=1;fontFamily=Verdana;fontSize=12" parent="1" source="2c924340bb9dbf6c-2" target="2c924340bb9dbf6c-1" edge="1">
          <mxGeometry relative="1" as="geometry" />
        </mxCell>
        <mxCell id="2c924340bb9dbf6c-29" value="relation" style="edgeStyle=none;rounded=1;html=1;labelBackgroundColor=none;startArrow=none;startFill=0;startSize=5;endArrow=classicThin;endFill=1;endSize=5;jettySize=auto;orthogonalLoop=1;strokeColor=#B3B3B3;strokeWidth=1;fontFamily=Verdana;fontSize=12" parent="1" source="2c924340bb9dbf6c-2" target="2c924340bb9dbf6c-8" edge="1">
          <mxGeometry relative="1" as="geometry" />
        </mxCell>
        <mxCell id="2c924340bb9dbf6c-30" value="relation" style="edgeStyle=none;rounded=1;html=1;labelBackgroundColor=none;startArrow=none;startFill=0;startSize=5;endArrow=classicThin;endFill=1;endSize=5;jettySize=auto;orthogonalLoop=1;strokeColor=#B3B3B3;strokeWidth=1;fontFamily=Verdana;fontSize=12" parent="1" source="2c924340bb9dbf6c-2" target="2c924340bb9dbf6c-9" edge="1">
          <mxGeometry relative="1" as="geometry" />
        </mxCell>
        <mxCell id="2c924340bb9dbf6c-31" value="relation" style="edgeStyle=none;rounded=1;html=1;labelBackgroundColor=none;startArrow=none;startFill=0;startSize=5;endArrow=classicThin;endFill=1;endSize=5;jettySize=auto;orthogonalLoop=1;strokeColor=#B3B3B3;strokeWidth=1;fontFamily=Verdana;fontSize=12" parent="1" source="2c924340bb9dbf6c-4" target="2c924340bb9dbf6c-2" edge="1">
          <mxGeometry relative="1" as="geometry" />
        </mxCell>
        <mxCell id="2c924340bb9dbf6c-32" value="relation" style="edgeStyle=none;rounded=1;html=1;labelBackgroundColor=none;startArrow=none;startFill=0;startSize=5;endArrow=classicThin;endFill=1;endSize=5;jettySize=auto;orthogonalLoop=1;strokeColor=#B3B3B3;strokeWidth=1;fontFamily=Verdana;fontSize=12" parent="1" source="2c924340bb9dbf6c-4" target="2c924340bb9dbf6c-3" edge="1">
          <mxGeometry relative="1" as="geometry" />
        </mxCell>
        <mxCell id="2c924340bb9dbf6c-33" value="relation" style="edgeStyle=none;rounded=1;html=1;labelBackgroundColor=none;startArrow=none;startFill=0;startSize=5;endArrow=classicThin;endFill=1;endSize=5;jettySize=auto;orthogonalLoop=1;strokeColor=#B3B3B3;strokeWidth=1;fontFamily=Verdana;fontSize=12" parent="1" source="2c924340bb9dbf6c-4" target="2c924340bb9dbf6c-5" edge="1">
          <mxGeometry relative="1" as="geometry" />
        </mxCell>
        <mxCell id="2c924340bb9dbf6c-35" value="relation" style="edgeStyle=none;rounded=1;html=1;labelBackgroundColor=none;startArrow=none;startFill=0;startSize=5;endArrow=classicThin;endFill=1;endSize=5;jettySize=auto;orthogonalLoop=1;strokeColor=#B3B3B3;strokeWidth=1;fontFamily=Verdana;fontSize=12" parent="1" source="2c924340bb9dbf6c-5" target="2c924340bb9dbf6c-7" edge="1">
          <mxGeometry relative="1" as="geometry" />
        </mxCell>
        <mxCell id="2c924340bb9dbf6c-36" value="relation" style="edgeStyle=none;rounded=1;html=1;labelBackgroundColor=none;startArrow=none;startFill=0;startSize=5;endArrow=classicThin;endFill=1;endSize=5;jettySize=auto;orthogonalLoop=1;strokeColor=#B3B3B3;strokeWidth=1;fontFamily=Verdana;fontSize=12" parent="1" source="2c924340bb9dbf6c-5" target="2c924340bb9dbf6c-6" edge="1">
          <mxGeometry relative="1" as="geometry" />
        </mxCell>
        <mxCell id="2c924340bb9dbf6c-37" value="relation" style="edgeStyle=none;rounded=1;html=1;labelBackgroundColor=none;startArrow=none;startFill=0;startSize=5;endArrow=classicThin;endFill=1;endSize=5;jettySize=auto;orthogonalLoop=1;strokeColor=#B3B3B3;strokeWidth=1;fontFamily=Verdana;fontSize=12" parent="1" source="2c924340bb9dbf6c-6" target="2c924340bb9dbf6c-13" edge="1">
          <mxGeometry relative="1" as="geometry" />
        </mxCell>
        <mxCell id="2c924340bb9dbf6c-38" value="relation" style="edgeStyle=none;rounded=1;html=1;labelBackgroundColor=none;startArrow=none;startFill=0;startSize=5;endArrow=classicThin;endFill=1;endSize=5;jettySize=auto;orthogonalLoop=1;strokeColor=#B3B3B3;strokeWidth=1;fontFamily=Verdana;fontSize=12" parent="1" source="2c924340bb9dbf6c-6" target="2c924340bb9dbf6c-12" edge="1">
          <mxGeometry relative="1" as="geometry" />
        </mxCell>
        <mxCell id="2c924340bb9dbf6c-39" value="relation" style="edgeStyle=none;rounded=1;html=1;labelBackgroundColor=none;startArrow=none;startFill=0;startSize=5;endArrow=classicThin;endFill=1;endSize=5;jettySize=auto;orthogonalLoop=1;strokeColor=#B3B3B3;strokeWidth=1;fontFamily=Verdana;fontSize=12" parent="1" source="2c924340bb9dbf6c-6" target="2c924340bb9dbf6c-22" edge="1">
          <mxGeometry relative="1" as="geometry" />
        </mxCell>
        <mxCell id="2c924340bb9dbf6c-40" value="relation" style="edgeStyle=none;rounded=1;html=1;labelBackgroundColor=none;startArrow=none;startFill=0;startSize=5;endArrow=classicThin;endFill=1;endSize=5;jettySize=auto;orthogonalLoop=1;strokeColor=#B3B3B3;strokeWidth=1;fontFamily=Verdana;fontSize=12" parent="1" source="2c924340bb9dbf6c-3" target="2c924340bb9dbf6c-19" edge="1">
          <mxGeometry relative="1" as="geometry" />
        </mxCell>
        <mxCell id="2c924340bb9dbf6c-41" value="relation" style="edgeStyle=none;rounded=1;html=1;labelBackgroundColor=none;startArrow=none;startFill=0;startSize=5;endArrow=classicThin;endFill=1;endSize=5;jettySize=auto;orthogonalLoop=1;strokeColor=#B3B3B3;strokeWidth=1;fontFamily=Verdana;fontSize=12" parent="1" source="2c924340bb9dbf6c-3" target="2c924340bb9dbf6c-18" edge="1">
          <mxGeometry relative="1" as="geometry" />
        </mxCell>
        <mxCell id="2c924340bb9dbf6c-42" value="relation" style="edgeStyle=none;rounded=1;html=1;labelBackgroundColor=none;startArrow=none;startFill=0;startSize=5;endArrow=classicThin;endFill=1;endSize=5;jettySize=auto;orthogonalLoop=1;strokeColor=#B3B3B3;strokeWidth=1;fontFamily=Verdana;fontSize=12" parent="1" source="2c924340bb9dbf6c-3" target="2c924340bb9dbf6c-17" edge="1">
          <mxGeometry relative="1" as="geometry" />
        </mxCell>
        <mxCell id="2c924340bb9dbf6c-43" value="relation" style="edgeStyle=none;rounded=1;html=1;labelBackgroundColor=none;startArrow=none;startFill=0;startSize=5;endArrow=classicThin;endFill=1;endSize=5;jettySize=auto;orthogonalLoop=1;strokeColor=#B3B3B3;strokeWidth=1;fontFamily=Verdana;fontSize=12" parent="1" source="2c924340bb9dbf6c-3" target="2c924340bb9dbf6c-16" edge="1">
          <mxGeometry relative="1" as="geometry" />
        </mxCell>
        <mxCell id="2c924340bb9dbf6c-44" value="relation" style="edgeStyle=none;rounded=1;html=1;labelBackgroundColor=none;startArrow=none;startFill=0;startSize=5;endArrow=classicThin;endFill=1;endSize=5;jettySize=auto;orthogonalLoop=1;strokeColor=#B3B3B3;strokeWidth=1;fontFamily=Verdana;fontSize=12" parent="1" source="2c924340bb9dbf6c-3" target="2c924340bb9dbf6c-15" edge="1">
          <mxGeometry relative="1" as="geometry" />
        </mxCell>
        <mxCell id="2c924340bb9dbf6c-45" value="relation" style="edgeStyle=none;rounded=1;html=1;labelBackgroundColor=none;startArrow=none;startFill=0;startSize=5;endArrow=classicThin;endFill=1;endSize=5;jettySize=auto;orthogonalLoop=1;strokeColor=#B3B3B3;strokeWidth=1;fontFamily=Verdana;fontSize=12" parent="1" source="2c924340bb9dbf6c-3" target="2c924340bb9dbf6c-14" edge="1">
          <mxGeometry relative="1" as="geometry" />
        </mxCell>
        <mxCell id="2c924340bb9dbf6c-46" value="relation" style="edgeStyle=none;rounded=1;html=1;labelBackgroundColor=none;startArrow=none;startFill=0;startSize=5;endArrow=classicThin;endFill=1;endSize=5;jettySize=auto;orthogonalLoop=1;strokeColor=#B3B3B3;strokeWidth=1;fontFamily=Verdana;fontSize=12" parent="1" source="2c924340bb9dbf6c-3" target="2c924340bb9dbf6c-11" edge="1">
          <mxGeometry relative="1" as="geometry" />
        </mxCell>
        <mxCell id="2c924340bb9dbf6c-47" value="relation" style="edgeStyle=none;rounded=1;html=1;labelBackgroundColor=none;startArrow=none;startFill=0;startSize=5;endArrow=classicThin;endFill=1;endSize=5;jettySize=auto;orthogonalLoop=1;strokeColor=#B3B3B3;strokeWidth=1;fontFamily=Verdana;fontSize=12" parent="1" source="2c924340bb9dbf6c-7" target="2c924340bb9dbf6c-26" edge="1">
          <mxGeometry relative="1" as="geometry" />
        </mxCell>
        <mxCell id="2c924340bb9dbf6c-48" value="relation" style="edgeStyle=none;rounded=1;html=1;labelBackgroundColor=none;startArrow=none;startFill=0;startSize=5;endArrow=classicThin;endFill=1;endSize=5;jettySize=auto;orthogonalLoop=1;strokeColor=#B3B3B3;strokeWidth=1;fontFamily=Verdana;fontSize=12" parent="1" source="2c924340bb9dbf6c-26" target="2c924340bb9dbf6c-25" edge="1">
          <mxGeometry relative="1" as="geometry" />
        </mxCell>
        <mxCell id="2c924340bb9dbf6c-49" value="relation" style="edgeStyle=none;rounded=1;html=1;labelBackgroundColor=none;startArrow=none;startFill=0;startSize=5;endArrow=classicThin;endFill=1;endSize=5;jettySize=auto;orthogonalLoop=1;strokeColor=#B3B3B3;strokeWidth=1;fontFamily=Verdana;fontSize=12" parent="1" source="2c924340bb9dbf6c-25" target="2c924340bb9dbf6c-24" edge="1">
          <mxGeometry relative="1" as="geometry" />
        </mxCell>
        <mxCell id="2c924340bb9dbf6c-50" value="Yes" style="edgeStyle=none;rounded=1;html=1;labelBackgroundColor=none;startArrow=none;startFill=0;startSize=5;endArrow=classicThin;endFill=1;endSize=5;jettySize=auto;orthogonalLoop=1;strokeColor=#B3B3B3;strokeWidth=1;fontFamily=Verdana;fontSize=12" parent="1" source="2c924340bb9dbf6c-24" target="2c924340bb9dbf6c-23" edge="1">
          <mxGeometry x="-0.7935" y="10" relative="1" as="geometry">
            <mxPoint as="offset" />
          </mxGeometry>
        </mxCell>
        <mxCell id="2c924340bb9dbf6c-51" value="Process 1" style="rounded=1;whiteSpace=wrap;html=1;shadow=1;comic=0;labelBackgroundColor=none;strokeWidth=2;fontFamily=Verdana;fontSize=12;align=center;" parent="1" vertex="1">
          <mxGeometry x="700" y="310" width="120" height="60" as="geometry" />
        </mxCell>
        <mxCell id="2c924340bb9dbf6c-52" value="&lt;span&gt;Sub-node 3&lt;/span&gt;" style="ellipse;whiteSpace=wrap;html=1;rounded=1;shadow=1;comic=0;labelBackgroundColor=none;strokeWidth=2;fontFamily=Verdana;fontSize=12;align=center;" parent="1" vertex="1">
          <mxGeometry x="900" y="300" width="120" height="80" as="geometry" />
        </mxCell>
        <mxCell id="2c924340bb9dbf6c-53" value="&lt;span&gt;Topic 24&lt;/span&gt;" style="whiteSpace=wrap;html=1;rounded=1;shadow=1;comic=0;labelBackgroundColor=none;strokeWidth=2;fontFamily=Verdana;fontSize=12;align=center;arcSize=50;" parent="1" vertex="1">
          <mxGeometry x="970" y="250" width="100" height="20" as="geometry" />
        </mxCell>
        <mxCell id="2c924340bb9dbf6c-54" value="&lt;span&gt;Topic 23&lt;/span&gt;" style="whiteSpace=wrap;html=1;rounded=1;shadow=1;comic=0;labelBackgroundColor=none;strokeWidth=2;fontFamily=Verdana;fontSize=12;align=center;arcSize=50;" parent="1" vertex="1">
          <mxGeometry x="950" y="415" width="100" height="20" as="geometry" />
        </mxCell>
        <mxCell id="2c924340bb9dbf6c-55" value="&lt;span&gt;Topic 8&lt;/span&gt;" style="whiteSpace=wrap;html=1;rounded=1;shadow=1;comic=0;labelBackgroundColor=none;strokeWidth=2;fontFamily=Verdana;fontSize=12;align=center;arcSize=50;" parent="1" vertex="1">
          <mxGeometry x="440" y="180" width="100" height="20" as="geometry" />
        </mxCell>
        <mxCell id="2c924340bb9dbf6c-56" value="&lt;span&gt;Topic 13&lt;/span&gt;" style="whiteSpace=wrap;html=1;rounded=1;shadow=1;comic=0;labelBackgroundColor=none;strokeWidth=2;fontFamily=Verdana;fontSize=12;align=center;arcSize=50;" parent="1" vertex="1">
          <mxGeometry x="270" y="240" width="100" height="20" as="geometry" />
        </mxCell>
        <mxCell id="2c924340bb9dbf6c-58" value="&lt;span&gt;Topic 19&lt;/span&gt;" style="whiteSpace=wrap;html=1;rounded=1;shadow=1;comic=0;labelBackgroundColor=none;strokeWidth=2;fontFamily=Verdana;fontSize=12;align=center;arcSize=50;" parent="1" vertex="1">
          <mxGeometry x="620" y="570" width="100" height="20" as="geometry" />
        </mxCell>
        <mxCell id="2c924340bb9dbf6c-59" value="&lt;span&gt;Topic 18&lt;/span&gt;" style="whiteSpace=wrap;html=1;rounded=1;shadow=1;comic=0;labelBackgroundColor=none;strokeWidth=2;fontFamily=Verdana;fontSize=12;align=center;arcSize=50;" parent="1" vertex="1">
          <mxGeometry x="490" y="610" width="100" height="20" as="geometry" />
        </mxCell>
        <mxCell id="2c924340bb9dbf6c-60" value="&lt;span&gt;Topic 17&lt;/span&gt;" style="whiteSpace=wrap;html=1;rounded=1;shadow=1;comic=0;labelBackgroundColor=none;strokeWidth=2;fontFamily=Verdana;fontSize=12;align=center;arcSize=50;" parent="1" vertex="1">
          <mxGeometry x="410" y="415" width="100" height="20" as="geometry" />
        </mxCell>
        <mxCell id="2c924340bb9dbf6c-61" value="relation" style="edgeStyle=none;rounded=1;html=1;labelBackgroundColor=none;startArrow=none;startFill=0;startSize=5;endArrow=classicThin;endFill=1;endSize=5;jettySize=auto;orthogonalLoop=1;strokeColor=#B3B3B3;strokeWidth=1;fontFamily=Verdana;fontSize=12" parent="1" source="2c924340bb9dbf6c-2" target="2c924340bb9dbf6c-55" edge="1">
          <mxGeometry relative="1" as="geometry" />
        </mxCell>
        <mxCell id="2c924340bb9dbf6c-62" value="relation" style="edgeStyle=none;rounded=1;html=1;labelBackgroundColor=none;startArrow=none;startFill=0;startSize=5;endArrow=classicThin;endFill=1;endSize=5;jettySize=auto;orthogonalLoop=1;strokeColor=#B3B3B3;strokeWidth=1;fontFamily=Verdana;fontSize=12" parent="1" source="2c924340bb9dbf6c-2" target="2c924340bb9dbf6c-56" edge="1">
          <mxGeometry relative="1" as="geometry" />
        </mxCell>
        <mxCell id="2c924340bb9dbf6c-63" value="relation" style="edgeStyle=none;rounded=1;html=1;labelBackgroundColor=none;startArrow=none;startFill=0;startSize=5;endArrow=classicThin;endFill=1;endSize=5;jettySize=auto;orthogonalLoop=1;strokeColor=#B3B3B3;strokeWidth=1;fontFamily=Verdana;fontSize=12" parent="1" source="2c924340bb9dbf6c-52" target="2c924340bb9dbf6c-53" edge="1">
          <mxGeometry relative="1" as="geometry" />
        </mxCell>
        <mxCell id="2c924340bb9dbf6c-64" value="relation" style="edgeStyle=none;rounded=1;html=1;labelBackgroundColor=none;startArrow=none;startFill=0;startSize=5;endArrow=classicThin;endFill=1;endSize=5;jettySize=auto;orthogonalLoop=1;strokeColor=#B3B3B3;strokeWidth=1;fontFamily=Verdana;fontSize=12" parent="1" source="2c924340bb9dbf6c-52" target="2c924340bb9dbf6c-54" edge="1">
          <mxGeometry relative="1" as="geometry" />
        </mxCell>
        <mxCell id="2c924340bb9dbf6c-65" value="relation" style="edgeStyle=none;rounded=1;html=1;labelBackgroundColor=none;startArrow=none;startFill=0;startSize=5;endArrow=classicThin;endFill=1;endSize=5;jettySize=auto;orthogonalLoop=1;strokeColor=#B3B3B3;strokeWidth=1;fontFamily=Verdana;fontSize=12" parent="1" source="2c924340bb9dbf6c-51" target="2c924340bb9dbf6c-52" edge="1">
          <mxGeometry relative="1" as="geometry" />
        </mxCell>
        <mxCell id="2c924340bb9dbf6c-66" value="relation" style="edgeStyle=none;rounded=1;html=1;labelBackgroundColor=none;startArrow=none;startFill=0;startSize=5;endArrow=classicThin;endFill=1;endSize=5;jettySize=auto;orthogonalLoop=1;strokeColor=#B3B3B3;strokeWidth=1;fontFamily=Verdana;fontSize=12" parent="1" source="2c924340bb9dbf6c-51" target="2c924340bb9dbf6c-5" edge="1">
          <mxGeometry relative="1" as="geometry" />
        </mxCell>
        <mxCell id="2c924340bb9dbf6c-67" value="&lt;span&gt;Sub-node 7&lt;/span&gt;" style="ellipse;whiteSpace=wrap;html=1;rounded=1;shadow=1;comic=0;labelBackgroundColor=none;strokeWidth=2;fontFamily=Verdana;fontSize=12;align=center;" parent="1" vertex="1">
          <mxGeometry x="190" y="450" width="120" height="80" as="geometry" />
        </mxCell>
        <mxCell id="2c924340bb9dbf6c-68" value="&lt;span&gt;Topic 16&lt;/span&gt;" style="whiteSpace=wrap;html=1;rounded=1;shadow=1;comic=0;labelBackgroundColor=none;strokeWidth=2;fontFamily=Verdana;fontSize=12;align=center;arcSize=50;" parent="1" vertex="1">
          <mxGeometry x="310" y="360" width="100" height="20" as="geometry" />
        </mxCell>
        <mxCell id="2c924340bb9dbf6c-69" value="&lt;span&gt;Topic 15&lt;/span&gt;" style="whiteSpace=wrap;html=1;rounded=1;shadow=1;comic=0;labelBackgroundColor=none;strokeWidth=2;fontFamily=Verdana;fontSize=12;align=center;arcSize=50;" parent="1" vertex="1">
          <mxGeometry x="250" y="330" width="100" height="20" as="geometry" />
        </mxCell>
        <mxCell id="2c924340bb9dbf6c-70" value="&lt;span&gt;Topic 14&lt;/span&gt;" style="whiteSpace=wrap;html=1;rounded=1;shadow=1;comic=0;labelBackgroundColor=none;strokeWidth=2;fontFamily=Verdana;fontSize=12;align=center;arcSize=50;" parent="1" vertex="1">
          <mxGeometry x="160" y="370" width="100" height="20" as="geometry" />
        </mxCell>
        <mxCell id="2c924340bb9dbf6c-72" value="relation" style="edgeStyle=none;rounded=1;html=1;labelBackgroundColor=none;startArrow=none;startFill=0;startSize=5;endArrow=classicThin;endFill=1;endSize=5;jettySize=auto;orthogonalLoop=1;strokeColor=#B3B3B3;strokeWidth=1;fontFamily=Verdana;fontSize=12" parent="1" source="2c924340bb9dbf6c-67" target="2c924340bb9dbf6c-70" edge="1">
          <mxGeometry relative="1" as="geometry" />
        </mxCell>
        <mxCell id="2c924340bb9dbf6c-73" value="relation" style="edgeStyle=none;rounded=1;html=1;labelBackgroundColor=none;startArrow=none;startFill=0;startSize=5;endArrow=classicThin;endFill=1;endSize=5;jettySize=auto;orthogonalLoop=1;strokeColor=#B3B3B3;strokeWidth=1;fontFamily=Verdana;fontSize=12" parent="1" source="2c924340bb9dbf6c-67" target="2c924340bb9dbf6c-69" edge="1">
          <mxGeometry relative="1" as="geometry" />
        </mxCell>
        <mxCell id="2c924340bb9dbf6c-74" value="relation" style="edgeStyle=none;rounded=1;html=1;labelBackgroundColor=none;startArrow=none;startFill=0;startSize=5;endArrow=classicThin;endFill=1;endSize=5;jettySize=auto;orthogonalLoop=1;strokeColor=#B3B3B3;strokeWidth=1;fontFamily=Verdana;fontSize=12" parent="1" source="2c924340bb9dbf6c-67" target="2c924340bb9dbf6c-68" edge="1">
          <mxGeometry relative="1" as="geometry" />
        </mxCell>
        <mxCell id="2c924340bb9dbf6c-75" value="No" style="edgeStyle=none;rounded=1;html=1;labelBackgroundColor=none;startArrow=none;startFill=0;startSize=5;endArrow=classicThin;endFill=1;endSize=5;jettySize=auto;orthogonalLoop=1;strokeColor=#B3B3B3;strokeWidth=1;fontFamily=Verdana;fontSize=12" parent="1" source="2c924340bb9dbf6c-24" target="2c924340bb9dbf6c-67" edge="1">
          <mxGeometry x="-0.504" y="20" relative="1" as="geometry">
            <mxPoint as="offset" />
          </mxGeometry>
        </mxCell>
        <mxCell id="2c924340bb9dbf6c-76" value="relation" style="edgeStyle=none;rounded=1;html=1;labelBackgroundColor=none;startArrow=none;startFill=0;startSize=5;endArrow=classicThin;endFill=1;endSize=5;jettySize=auto;orthogonalLoop=1;strokeColor=#B3B3B3;strokeWidth=1;fontFamily=Verdana;fontSize=12" parent="1" source="2c924340bb9dbf6c-4" target="2c924340bb9dbf6c-60" edge="1">
          <mxGeometry relative="1" as="geometry" />
        </mxCell>
        <mxCell id="2c924340bb9dbf6c-77" value="relation" style="edgeStyle=none;rounded=1;html=1;labelBackgroundColor=none;startArrow=none;startFill=0;startSize=5;endArrow=classicThin;endFill=1;endSize=5;jettySize=auto;orthogonalLoop=1;strokeColor=#B3B3B3;strokeWidth=1;fontFamily=Verdana;fontSize=12" parent="1" source="2c924340bb9dbf6c-5" target="2c924340bb9dbf6c-58" edge="1">
          <mxGeometry relative="1" as="geometry" />
        </mxCell>
        <mxCell id="2c924340bb9dbf6c-78" value="relation" style="edgeStyle=none;rounded=1;html=1;labelBackgroundColor=none;startArrow=none;startFill=0;startSize=5;endArrow=classicThin;endFill=1;endSize=5;jettySize=auto;orthogonalLoop=1;strokeColor=#B3B3B3;strokeWidth=1;fontFamily=Verdana;fontSize=12" parent="1" source="2c924340bb9dbf6c-7" target="2c924340bb9dbf6c-59" edge="1">
          <mxGeometry relative="1" as="geometry" />
        </mxCell>
      </root>
    </mxGraphModel>
  </diagram>
  <diagram id="zE5Er2o0l1xPXN5YSjjl" name="Page-2">
    <mxGraphModel dx="711" dy="363" grid="1" gridSize="10" guides="1" tooltips="1" connect="1" arrows="1" fold="1" page="1" pageScale="1" pageWidth="827" pageHeight="1169" math="0" shadow="0">
      <root>
        <mxCell id="0" />
        <mxCell id="1" parent="0" />
        <mxCell id="V9V3Fj_Jb6OztSxnfzqi-34" value="" style="endArrow=classic;html=1;rounded=0;fontSize=8;fontColor=#F19C99;entryX=1;entryY=0.5;entryDx=0;entryDy=0;exitX=0.5;exitY=0.5;exitDx=0;exitDy=0;exitPerimeter=0;" edge="1" parent="1" source="V9V3Fj_Jb6OztSxnfzqi-2">
          <mxGeometry width="50" height="50" relative="1" as="geometry">
            <mxPoint x="40" y="301" as="sourcePoint" />
            <mxPoint x="350" y="250" as="targetPoint" />
          </mxGeometry>
        </mxCell>
        <mxCell id="V9V3Fj_Jb6OztSxnfzqi-52" value="Statistic and Report" style="ellipse;whiteSpace=wrap;html=1;strokeWidth=2;fontSize=8;fontColor=#F19C99;" vertex="1" parent="1">
          <mxGeometry x="255" y="453" width="106" height="32" as="geometry" />
        </mxCell>
        <mxCell id="V9V3Fj_Jb6OztSxnfzqi-56" value="Registration" style="ellipse;whiteSpace=wrap;html=1;strokeWidth=2;fontSize=8;fontColor=#F19C99;" vertex="1" parent="1">
          <mxGeometry x="255" y="241" width="106" height="32" as="geometry" />
        </mxCell>
        <mxCell id="V9V3Fj_Jb6OztSxnfzqi-57" value="Profile Manage" style="ellipse;whiteSpace=wrap;html=1;strokeWidth=2;fontSize=8;fontColor=#F19C99;" vertex="1" parent="1">
          <mxGeometry x="255" y="281" width="106" height="32" as="geometry" />
        </mxCell>
        <mxCell id="V9V3Fj_Jb6OztSxnfzqi-58" value="View Resume" style="ellipse;whiteSpace=wrap;html=1;strokeWidth=2;fontSize=8;fontColor=#F19C99;" vertex="1" parent="1">
          <mxGeometry x="253" y="369" width="106" height="32" as="geometry" />
        </mxCell>
        <mxCell id="V9V3Fj_Jb6OztSxnfzqi-59" value="Make Payment" style="ellipse;whiteSpace=wrap;html=1;strokeWidth=2;fontSize=8;fontColor=#F19C99;" vertex="1" parent="1">
          <mxGeometry x="255" y="413" width="106" height="32" as="geometry" />
        </mxCell>
        <mxCell id="V9V3Fj_Jb6OztSxnfzqi-60" value="Manage Job" style="ellipse;whiteSpace=wrap;html=1;strokeWidth=2;fontSize=8;fontColor=#F19C99;" vertex="1" parent="1">
          <mxGeometry x="253" y="495" width="106" height="32" as="geometry" />
        </mxCell>
        <mxCell id="V9V3Fj_Jb6OztSxnfzqi-61" value="" style="endArrow=classic;html=1;rounded=0;fontSize=8;fontColor=#F19C99;entryX=1;entryY=0.5;entryDx=0;entryDy=0;exitX=0.5;exitY=0.5;exitDx=0;exitDy=0;exitPerimeter=0;" edge="1" parent="1" source="V9V3Fj_Jb6OztSxnfzqi-2" target="V9V3Fj_Jb6OztSxnfzqi-57">
          <mxGeometry width="50" height="50" relative="1" as="geometry">
            <mxPoint x="180" y="421" as="sourcePoint" />
            <mxPoint x="230" y="371" as="targetPoint" />
          </mxGeometry>
        </mxCell>
        <mxCell id="V9V3Fj_Jb6OztSxnfzqi-62" value="" style="endArrow=classic;html=1;rounded=0;fontSize=8;fontColor=#F19C99;entryX=0.999;entryY=0.529;entryDx=0;entryDy=0;entryPerimeter=0;" edge="1" parent="1" target="V9V3Fj_Jb6OztSxnfzqi-71">
          <mxGeometry width="50" height="50" relative="1" as="geometry">
            <mxPoint x="510" y="421" as="sourcePoint" />
            <mxPoint x="361" y="345" as="targetPoint" />
          </mxGeometry>
        </mxCell>
        <mxCell id="V9V3Fj_Jb6OztSxnfzqi-63" value="" style="endArrow=classic;html=1;rounded=0;fontSize=8;fontColor=#F19C99;exitX=0;exitY=0.3333333333333333;exitDx=0;exitDy=0;exitPerimeter=0;" edge="1" parent="1" source="V9V3Fj_Jb6OztSxnfzqi-2" target="V9V3Fj_Jb6OztSxnfzqi-58">
          <mxGeometry width="50" height="50" relative="1" as="geometry">
            <mxPoint x="360" y="491" as="sourcePoint" />
            <mxPoint x="410" y="441" as="targetPoint" />
          </mxGeometry>
        </mxCell>
        <mxCell id="V9V3Fj_Jb6OztSxnfzqi-64" value="" style="endArrow=classic;html=1;rounded=0;fontSize=8;fontColor=#F19C99;" edge="1" parent="1" target="V9V3Fj_Jb6OztSxnfzqi-59">
          <mxGeometry width="50" height="50" relative="1" as="geometry">
            <mxPoint x="510" y="421" as="sourcePoint" />
            <mxPoint x="370" y="431" as="targetPoint" />
            <Array as="points">
              <mxPoint x="359" y="431" />
              <mxPoint x="370" y="431" />
            </Array>
          </mxGeometry>
        </mxCell>
        <mxCell id="V9V3Fj_Jb6OztSxnfzqi-65" value="" style="endArrow=classic;html=1;rounded=0;fontSize=8;fontColor=#F19C99;entryX=1;entryY=0.5;entryDx=0;entryDy=0;" edge="1" parent="1" target="V9V3Fj_Jb6OztSxnfzqi-52">
          <mxGeometry width="50" height="50" relative="1" as="geometry">
            <mxPoint x="510" y="421" as="sourcePoint" />
            <mxPoint x="410" y="441" as="targetPoint" />
          </mxGeometry>
        </mxCell>
        <mxCell id="V9V3Fj_Jb6OztSxnfzqi-66" value="" style="endArrow=classic;html=1;rounded=0;fontSize=8;fontColor=#F19C99;entryX=1;entryY=0.5;entryDx=0;entryDy=0;exitX=0.5;exitY=0.5;exitDx=0;exitDy=0;exitPerimeter=0;" edge="1" parent="1" source="V9V3Fj_Jb6OztSxnfzqi-2" target="V9V3Fj_Jb6OztSxnfzqi-60">
          <mxGeometry width="50" height="50" relative="1" as="geometry">
            <mxPoint x="360" y="491" as="sourcePoint" />
            <mxPoint x="410" y="441" as="targetPoint" />
          </mxGeometry>
        </mxCell>
        <mxCell id="V9V3Fj_Jb6OztSxnfzqi-71" value="Search Talent" style="ellipse;whiteSpace=wrap;html=1;strokeWidth=2;fontSize=8;fontColor=#F19C99;" vertex="1" parent="1">
          <mxGeometry x="255" y="323" width="106" height="32" as="geometry" />
        </mxCell>
        <mxCell id="V9V3Fj_Jb6OztSxnfzqi-72" value="Total Job Ad" style="ellipse;whiteSpace=wrap;html=1;strokeWidth=2;fontSize=8;fontColor=#F19C99;" vertex="1" parent="1">
          <mxGeometry x="62" y="453" width="106" height="32" as="geometry" />
        </mxCell>
        <mxCell id="V9V3Fj_Jb6OztSxnfzqi-74" value="Project Application" style="ellipse;whiteSpace=wrap;html=1;strokeWidth=2;fontSize=8;fontColor=#F19C99;" vertex="1" parent="1">
          <mxGeometry x="255" y="535.5" width="106" height="32" as="geometry" />
        </mxCell>
        <mxCell id="V9V3Fj_Jb6OztSxnfzqi-78" value="" style="endArrow=classic;html=1;rounded=0;fontSize=8;fontColor=#F19C99;entryX=1;entryY=0.5;entryDx=0;entryDy=0;dashed=1;" edge="1" parent="1" source="V9V3Fj_Jb6OztSxnfzqi-52" target="V9V3Fj_Jb6OztSxnfzqi-72">
          <mxGeometry relative="1" as="geometry">
            <mxPoint x="270" y="461" as="sourcePoint" />
            <mxPoint x="370" y="461" as="targetPoint" />
          </mxGeometry>
        </mxCell>
        <mxCell id="V9V3Fj_Jb6OztSxnfzqi-79" value="Statistic" style="edgeLabel;resizable=0;html=1;align=center;verticalAlign=middle;strokeWidth=2;fontSize=10;fontColor=#F19C99;" connectable="0" vertex="1" parent="V9V3Fj_Jb6OztSxnfzqi-78">
          <mxGeometry relative="1" as="geometry" />
        </mxCell>
        <UserObject label="&lt;font color=&quot;#a680b8&quot;&gt;Job Seeker Module&lt;/font&gt;" tooltip="" id="V9V3Fj_Jb6OztSxnfzqi-1">
          <mxCell style="shape=umlActor;verticalLabelPosition=bottom;verticalAlign=top;html=1;outlineConnect=0;fillColor=#e1d5e7;strokeColor=#9673a6;strokeWidth=2;" vertex="1" parent="1">
            <mxGeometry x="84" y="110" width="20" height="40" as="geometry" />
          </mxCell>
        </UserObject>
        <mxCell id="V9V3Fj_Jb6OztSxnfzqi-80" value="Total Job Application" style="ellipse;whiteSpace=wrap;html=1;strokeWidth=2;fontSize=8;fontColor=#F19C99;" vertex="1" parent="1">
          <mxGeometry x="62" y="409" width="106" height="32" as="geometry" />
        </mxCell>
        <mxCell id="V9V3Fj_Jb6OztSxnfzqi-81" value="Ad Posting Engagement Statics" style="ellipse;whiteSpace=wrap;html=1;strokeWidth=2;fontSize=8;fontColor=#F19C99;" vertex="1" parent="1">
          <mxGeometry x="62" y="495" width="106" height="32" as="geometry" />
        </mxCell>
        <mxCell id="V9V3Fj_Jb6OztSxnfzqi-85" value="" style="endArrow=classic;html=1;rounded=0;fontSize=8;fontColor=#F19C99;entryX=1.006;entryY=0.487;entryDx=0;entryDy=0;dashed=1;entryPerimeter=0;exitX=0;exitY=0.5;exitDx=0;exitDy=0;" edge="1" parent="1" source="V9V3Fj_Jb6OztSxnfzqi-52" target="V9V3Fj_Jb6OztSxnfzqi-81">
          <mxGeometry relative="1" as="geometry">
            <mxPoint x="264.99999999999994" y="479" as="sourcePoint" />
            <mxPoint x="177.99999999999994" y="479" as="targetPoint" />
          </mxGeometry>
        </mxCell>
        <mxCell id="V9V3Fj_Jb6OztSxnfzqi-86" value="Statistic" style="edgeLabel;resizable=0;html=1;align=center;verticalAlign=middle;strokeWidth=2;fontSize=10;fontColor=#F19C99;" connectable="0" vertex="1" parent="V9V3Fj_Jb6OztSxnfzqi-85">
          <mxGeometry relative="1" as="geometry" />
        </mxCell>
        <mxCell id="V9V3Fj_Jb6OztSxnfzqi-87" value="" style="endArrow=classic;html=1;rounded=0;fontSize=8;fontColor=#F19C99;entryX=1.001;entryY=0.537;entryDx=0;entryDy=0;dashed=1;entryPerimeter=0;exitX=0;exitY=0.5;exitDx=0;exitDy=0;" edge="1" parent="1" source="V9V3Fj_Jb6OztSxnfzqi-52" target="V9V3Fj_Jb6OztSxnfzqi-80">
          <mxGeometry relative="1" as="geometry">
            <mxPoint x="264.99999999999994" y="479" as="sourcePoint" />
            <mxPoint x="178.63600000000002" y="520.5840000000001" as="targetPoint" />
          </mxGeometry>
        </mxCell>
        <mxCell id="V9V3Fj_Jb6OztSxnfzqi-88" value="Statistic" style="edgeLabel;resizable=0;html=1;align=center;verticalAlign=middle;strokeWidth=2;fontSize=10;fontColor=#F19C99;" connectable="0" vertex="1" parent="V9V3Fj_Jb6OztSxnfzqi-87">
          <mxGeometry relative="1" as="geometry" />
        </mxCell>
        <UserObject label="&lt;font color=&quot;#ff9933&quot;&gt;Institutions Module&lt;/font&gt;" tooltip="Sahil" id="V9V3Fj_Jb6OztSxnfzqi-4">
          <mxCell style="shape=umlActor;verticalLabelPosition=bottom;verticalAlign=top;html=1;outlineConnect=0;strokeWidth=2;fillColor=#ffe6cc;strokeColor=#d79b00;" vertex="1" parent="1">
            <mxGeometry x="60" y="710" width="20" height="40" as="geometry" />
          </mxCell>
        </UserObject>
        <mxCell id="V9V3Fj_Jb6OztSxnfzqi-89" value="" style="endArrow=classic;html=1;rounded=0;fontSize=8;fontColor=#F19C99;entryX=1;entryY=0.5;entryDx=0;entryDy=0;" edge="1" parent="1" target="V9V3Fj_Jb6OztSxnfzqi-74">
          <mxGeometry width="50" height="50" relative="1" as="geometry">
            <mxPoint x="510" y="421" as="sourcePoint" />
            <mxPoint x="369.00000000000136" y="521" as="targetPoint" />
          </mxGeometry>
        </mxCell>
        <mxCell id="V9V3Fj_Jb6OztSxnfzqi-90" value="" style="endArrow=classic;html=1;rounded=0;fontSize=8;fontColor=#F19C99;entryX=1;entryY=0.5;entryDx=0;entryDy=0;exitX=0.5;exitY=0.5;exitDx=0;exitDy=0;exitPerimeter=0;" edge="1" parent="1" source="V9V3Fj_Jb6OztSxnfzqi-2" target="V9V3Fj_Jb6OztSxnfzqi-73">
          <mxGeometry width="50" height="50" relative="1" as="geometry">
            <mxPoint x="500" y="431" as="sourcePoint" />
            <mxPoint x="379.00000000000136" y="531" as="targetPoint" />
          </mxGeometry>
        </mxCell>
        <UserObject label="&lt;font color=&quot;#97d077&quot;&gt;General Module&lt;/font&gt;" tooltip="Sahil" id="V9V3Fj_Jb6OztSxnfzqi-7">
          <mxCell style="shape=umlActor;verticalLabelPosition=bottom;verticalAlign=top;html=1;outlineConnect=0;fillColor=#d5e8d4;strokeColor=#82b366;strokeWidth=2;" vertex="1" parent="1">
            <mxGeometry x="500" y="950" width="20" height="40" as="geometry" />
          </mxCell>
        </UserObject>
        <mxCell id="V9V3Fj_Jb6OztSxnfzqi-13" value="&lt;font style=&quot;font-size: 8px;&quot;&gt;Login&lt;/font&gt;" style="ellipse;whiteSpace=wrap;html=1;strokeWidth=2;fontColor=#97D077;fontSize=8;" vertex="1" parent="1">
          <mxGeometry x="245" y="34" width="100" height="20" as="geometry" />
        </mxCell>
        <mxCell id="V9V3Fj_Jb6OztSxnfzqi-14" value="&lt;font style=&quot;font-size: 8px;&quot;&gt;Manage Profile&lt;/font&gt;" style="ellipse;whiteSpace=wrap;html=1;strokeWidth=2;fontColor=#97D077;fontSize=8;" vertex="1" parent="1">
          <mxGeometry x="244" y="89" width="100" height="20" as="geometry" />
        </mxCell>
        <mxCell id="V9V3Fj_Jb6OztSxnfzqi-15" value="&lt;font style=&quot;font-size: 8px;&quot;&gt;Job Application&lt;/font&gt;" style="ellipse;whiteSpace=wrap;html=1;strokeWidth=2;fontColor=#97D077;fontSize=8;" vertex="1" parent="1">
          <mxGeometry x="244" y="122" width="100" height="20" as="geometry" />
        </mxCell>
        <mxCell id="V9V3Fj_Jb6OztSxnfzqi-16" value="&lt;font style=&quot;font-size: 8px;&quot;&gt;Resource&lt;/font&gt;" style="ellipse;whiteSpace=wrap;html=1;strokeWidth=2;fontColor=#97D077;" vertex="1" parent="1">
          <mxGeometry x="244" y="160" width="100" height="20" as="geometry" />
        </mxCell>
        <mxCell id="V9V3Fj_Jb6OztSxnfzqi-17" value="" style="ellipse;whiteSpace=wrap;html=1;strokeWidth=2;fontColor=#97D077;" vertex="1" parent="1">
          <mxGeometry x="244" y="191" width="100" height="20" as="geometry" />
        </mxCell>
        <mxCell id="V9V3Fj_Jb6OztSxnfzqi-18" value="&lt;font style=&quot;font-size: 8px;&quot;&gt;Registration&lt;/font&gt;" style="ellipse;whiteSpace=wrap;html=1;strokeWidth=2;fontColor=#97D077;align=center;fontSize=8;" vertex="1" parent="1">
          <mxGeometry x="244" y="60" width="100" height="20" as="geometry" />
        </mxCell>
        <mxCell id="V9V3Fj_Jb6OztSxnfzqi-19" value="" style="endArrow=classic;html=1;rounded=0;fontColor=#97D077;" edge="1" parent="1" source="V9V3Fj_Jb6OztSxnfzqi-1">
          <mxGeometry width="50" height="50" relative="1" as="geometry">
            <mxPoint x="194" y="95" as="sourcePoint" />
            <mxPoint x="244" y="45" as="targetPoint" />
          </mxGeometry>
        </mxCell>
        <mxCell id="V9V3Fj_Jb6OztSxnfzqi-20" value="" style="endArrow=classic;html=1;rounded=0;fontColor=#97D077;entryX=0;entryY=0.5;entryDx=0;entryDy=0;" edge="1" parent="1" source="V9V3Fj_Jb6OztSxnfzqi-1" target="V9V3Fj_Jb6OztSxnfzqi-18">
          <mxGeometry width="50" height="50" relative="1" as="geometry">
            <mxPoint x="334" y="60" as="sourcePoint" />
            <mxPoint x="384" y="10" as="targetPoint" />
          </mxGeometry>
        </mxCell>
        <mxCell id="V9V3Fj_Jb6OztSxnfzqi-22" value="" style="endArrow=classic;html=1;rounded=0;fontColor=#97D077;entryX=0;entryY=0.5;entryDx=0;entryDy=0;" edge="1" parent="1" source="V9V3Fj_Jb6OztSxnfzqi-1" target="V9V3Fj_Jb6OztSxnfzqi-14">
          <mxGeometry width="50" height="50" relative="1" as="geometry">
            <mxPoint x="334" y="240" as="sourcePoint" />
            <mxPoint x="384" y="190" as="targetPoint" />
          </mxGeometry>
        </mxCell>
        <mxCell id="V9V3Fj_Jb6OztSxnfzqi-23" value="" style="endArrow=classic;html=1;rounded=0;fontColor=#97D077;entryX=0;entryY=0.5;entryDx=0;entryDy=0;" edge="1" parent="1" source="V9V3Fj_Jb6OztSxnfzqi-1" target="V9V3Fj_Jb6OztSxnfzqi-15">
          <mxGeometry width="50" height="50" relative="1" as="geometry">
            <mxPoint x="204" y="190" as="sourcePoint" />
            <mxPoint x="254" y="140" as="targetPoint" />
          </mxGeometry>
        </mxCell>
        <mxCell id="V9V3Fj_Jb6OztSxnfzqi-24" value="" style="endArrow=classic;html=1;rounded=0;fontColor=#97D077;entryX=0.03;entryY=0.411;entryDx=0;entryDy=0;entryPerimeter=0;" edge="1" parent="1" source="V9V3Fj_Jb6OztSxnfzqi-1" target="V9V3Fj_Jb6OztSxnfzqi-16">
          <mxGeometry width="50" height="50" relative="1" as="geometry">
            <mxPoint x="204" y="190" as="sourcePoint" />
            <mxPoint x="254" y="140" as="targetPoint" />
          </mxGeometry>
        </mxCell>
        <mxCell id="V9V3Fj_Jb6OztSxnfzqi-25" value="" style="endArrow=classic;html=1;rounded=0;fontColor=#97D077;entryX=0;entryY=0.5;entryDx=0;entryDy=0;" edge="1" parent="1" source="V9V3Fj_Jb6OztSxnfzqi-1" target="V9V3Fj_Jb6OztSxnfzqi-17">
          <mxGeometry width="50" height="50" relative="1" as="geometry">
            <mxPoint x="204" y="190" as="sourcePoint" />
            <mxPoint x="254" y="140" as="targetPoint" />
          </mxGeometry>
        </mxCell>
        <mxCell id="V9V3Fj_Jb6OztSxnfzqi-73" value="project Advertisement" style="ellipse;whiteSpace=wrap;html=1;strokeWidth=2;fontSize=8;fontColor=#F19C99;" vertex="1" parent="1">
          <mxGeometry x="255" y="573" width="106" height="32" as="geometry" />
        </mxCell>
        <UserObject label="&lt;font color=&quot;#ff3333&quot;&gt;Companies/Industries&lt;br&gt;module&lt;/font&gt;" tooltip="Sahil" id="V9V3Fj_Jb6OztSxnfzqi-2">
          <mxCell style="shape=umlActor;verticalLabelPosition=bottom;verticalAlign=top;html=1;outlineConnect=0;strokeWidth=2;fillColor=#f8cecc;strokeColor=#b85450;" vertex="1" parent="1">
            <mxGeometry x="500" y="401" width="20" height="40" as="geometry" />
          </mxCell>
        </UserObject>
        <mxCell id="V9V3Fj_Jb6OztSxnfzqi-91" value="Profile Info" style="ellipse;whiteSpace=wrap;html=1;strokeWidth=2;fontSize=8;fontColor=#F19C99;" vertex="1" parent="1">
          <mxGeometry x="70" y="241" width="106" height="32" as="geometry" />
        </mxCell>
        <mxCell id="V9V3Fj_Jb6OztSxnfzqi-92" value="Change Pass" style="ellipse;whiteSpace=wrap;html=1;strokeWidth=2;fontSize=8;fontColor=#F19C99;" vertex="1" parent="1">
          <mxGeometry x="70" y="281" width="106" height="32" as="geometry" />
        </mxCell>
        <mxCell id="V9V3Fj_Jb6OztSxnfzqi-93" value="New Pass" style="ellipse;whiteSpace=wrap;html=1;strokeWidth=2;fontSize=8;fontColor=#F19C99;" vertex="1" parent="1">
          <mxGeometry x="71" y="343" width="106" height="32" as="geometry" />
        </mxCell>
        <mxCell id="V9V3Fj_Jb6OztSxnfzqi-94" value="" style="endArrow=classic;html=1;rounded=0;fontSize=8;fontColor=#F19C99;entryX=1;entryY=0.5;entryDx=0;entryDy=0;dashed=1;exitX=0;exitY=0.5;exitDx=0;exitDy=0;" edge="1" parent="1" source="V9V3Fj_Jb6OztSxnfzqi-57" target="V9V3Fj_Jb6OztSxnfzqi-92">
          <mxGeometry relative="1" as="geometry">
            <mxPoint x="265" y="479" as="sourcePoint" />
            <mxPoint x="178.106" y="436.18399999999997" as="targetPoint" />
          </mxGeometry>
        </mxCell>
        <mxCell id="V9V3Fj_Jb6OztSxnfzqi-95" value="exclude" style="edgeLabel;resizable=0;html=1;align=center;verticalAlign=middle;strokeWidth=2;fontSize=10;fontColor=#F19C99;" connectable="0" vertex="1" parent="V9V3Fj_Jb6OztSxnfzqi-94">
          <mxGeometry relative="1" as="geometry" />
        </mxCell>
        <mxCell id="V9V3Fj_Jb6OztSxnfzqi-96" value="" style="endArrow=classic;html=1;rounded=0;fontSize=8;fontColor=#F19C99;entryX=0.5;entryY=0;entryDx=0;entryDy=0;dashed=1;exitX=0.5;exitY=1;exitDx=0;exitDy=0;" edge="1" parent="1" source="V9V3Fj_Jb6OztSxnfzqi-92" target="V9V3Fj_Jb6OztSxnfzqi-93">
          <mxGeometry relative="1" as="geometry">
            <mxPoint x="265" y="307" as="sourcePoint" />
            <mxPoint x="186" y="307" as="targetPoint" />
          </mxGeometry>
        </mxCell>
        <mxCell id="V9V3Fj_Jb6OztSxnfzqi-97" value="include" style="edgeLabel;resizable=0;html=1;align=center;verticalAlign=middle;strokeWidth=2;fontSize=10;fontColor=#F19C99;" connectable="0" vertex="1" parent="V9V3Fj_Jb6OztSxnfzqi-96">
          <mxGeometry relative="1" as="geometry" />
        </mxCell>
        <mxCell id="V9V3Fj_Jb6OztSxnfzqi-98" value="" style="endArrow=classic;html=1;rounded=0;fontSize=8;fontColor=#F19C99;entryX=1;entryY=0.5;entryDx=0;entryDy=0;dashed=1;exitX=0;exitY=0.5;exitDx=0;exitDy=0;" edge="1" parent="1" source="V9V3Fj_Jb6OztSxnfzqi-57" target="V9V3Fj_Jb6OztSxnfzqi-91">
          <mxGeometry relative="1" as="geometry">
            <mxPoint x="265.00000000000034" y="307" as="sourcePoint" />
            <mxPoint x="185.99999999999966" y="307" as="targetPoint" />
          </mxGeometry>
        </mxCell>
        <mxCell id="V9V3Fj_Jb6OztSxnfzqi-99" value="include" style="edgeLabel;resizable=0;html=1;align=center;verticalAlign=middle;strokeWidth=2;fontSize=10;fontColor=#F19C99;" connectable="0" vertex="1" parent="V9V3Fj_Jb6OztSxnfzqi-98">
          <mxGeometry relative="1" as="geometry" />
        </mxCell>
        <mxCell id="V9V3Fj_Jb6OztSxnfzqi-100" value="project Advertisement" style="ellipse;whiteSpace=wrap;html=1;strokeWidth=2;fontSize=8;fontColor=#F19C99;" vertex="1" parent="1">
          <mxGeometry x="200" y="639" width="106" height="32" as="geometry" />
        </mxCell>
        <mxCell id="V9V3Fj_Jb6OztSxnfzqi-101" value="project Advertisement" style="ellipse;whiteSpace=wrap;html=1;strokeWidth=2;fontSize=8;fontColor=#F19C99;" vertex="1" parent="1">
          <mxGeometry x="200" y="678" width="106" height="32" as="geometry" />
        </mxCell>
        <mxCell id="V9V3Fj_Jb6OztSxnfzqi-102" value="project Advertisement" style="ellipse;whiteSpace=wrap;html=1;strokeWidth=2;fontSize=8;fontColor=#F19C99;" vertex="1" parent="1">
          <mxGeometry x="202" y="801" width="106" height="32" as="geometry" />
        </mxCell>
        <mxCell id="V9V3Fj_Jb6OztSxnfzqi-103" value="project Advertisement" style="ellipse;whiteSpace=wrap;html=1;strokeWidth=2;fontSize=8;fontColor=#F19C99;" vertex="1" parent="1">
          <mxGeometry x="200" y="718" width="106" height="32" as="geometry" />
        </mxCell>
        <mxCell id="V9V3Fj_Jb6OztSxnfzqi-104" value="project Advertisement" style="ellipse;whiteSpace=wrap;html=1;strokeWidth=2;fontSize=8;fontColor=#F19C99;" vertex="1" parent="1">
          <mxGeometry x="200" y="760" width="106" height="32" as="geometry" />
        </mxCell>
        <mxCell id="V9V3Fj_Jb6OztSxnfzqi-105" value="project Advertisement" style="ellipse;whiteSpace=wrap;html=1;strokeWidth=2;fontSize=8;fontColor=#F19C99;" vertex="1" parent="1">
          <mxGeometry x="203" y="840" width="106" height="32" as="geometry" />
        </mxCell>
      </root>
    </mxGraphModel>
  </diagram>
</mxfile>
